[gd_scene load_steps=3 format=1]

[sub_resource type="RectangleShape2D" id=1]

custom_solver_bias = 0.0
extents = Vector2( 512, 10 )

[sub_resource type="RectangleShape2D" id=2]

custom_solver_bias = 0.0
extents = Vector2( 10, 300 )

[node name="Walls" type="StaticBody2D"]

editor/display_folded = true
transform/pos = Vector2( 512, 300 )
input/pickable = false
shapes/0/shape = SubResource( 1 )
shapes/0/transform = Matrix32( 1, 0, 0, 1, 0, -312 )
shapes/0/trigger = false
shapes/1/shape = SubResource( 1 )
shapes/1/transform = Matrix32( 1, 0, 0, 1, 0, 312 )
shapes/1/trigger = false
shapes/2/shape = SubResource( 2 )
shapes/2/transform = Matrix32( 1, 0, 0, 1, 524, 0 )
shapes/2/trigger = false
shapes/3/shape = SubResource( 2 )
shapes/3/transform = Matrix32( 1, 0, 0, 1, -524, 0 )
shapes/3/trigger = false
collision/layers = 1
collision/mask = 1
constant_linear_velocity = Vector2( 0, 0 )
constant_angular_velocity = 0.0
friction = 1.0
bounce = 0.0

[node name="CollisionShape2D" type="CollisionShape2D" parent="."]

transform/pos = Vector2( 0, -312 )
shape = SubResource( 1 )
trigger = false
_update_shape_index = 0

[node name="CollisionShape2D1" type="CollisionShape2D" parent="."]

transform/pos = Vector2( 0, 312 )
shape = SubResource( 1 )
trigger = false
_update_shape_index = 1

[node name="CollisionShape2D2" type="CollisionShape2D" parent="."]

transform/pos = Vector2( 524, 0 )
shape = SubResource( 2 )
trigger = false
_update_shape_index = 2

[node name="CollisionShape2D3" type="CollisionShape2D" parent="."]

transform/pos = Vector2( -524, 0 )
shape = SubResource( 2 )
trigger = false
_update_shape_index = 3


