[gd_scene load_steps=6 format=1]

[ext_resource path="res://objects/game/game.gd" type="Script" id=1]
[ext_resource path="res://objects/Walls/Walls.tscn" type="PackedScene" id=2]
[ext_resource path="res://objects/Walls/DeadZone.tscn" type="PackedScene" id=3]
[ext_resource path="res://objects/game/camera.gd" type="Script" id=4]
[ext_resource path="res://objects/countdown/Countdown.tscn" type="PackedScene" id=5]

[node name="game" type="Node2D"]

script/script = ExtResource( 1 )

[node name="players" type="Node2D" parent="."]

[node name="Walls" parent="." instance=ExtResource( 2 )]

collision/layers = 3
collision/mask = 3

[node name="DeadZone" parent="." instance=ExtResource( 3 )]

[node name="RestartableTimer" type="Timer" parent="."]

process_mode = 1
wait_time = 10.0
one_shot = true
autostart = false

[node name="Camera" type="Camera2D" parent="."]

anchor_mode = 0
rotating = false
current = true
zoom = Vector2( 1, 1 )
limit/left = -10000000
limit/top = -10000000
limit/right = 10000000
limit/bottom = 10000000
drag_margin/h_enabled = true
drag_margin/v_enabled = true
smoothing/enable = false
smoothing/speed = 5.0
drag_margin/left = 0.2
drag_margin/top = 0.2
drag_margin/right = 0.2
drag_margin/bottom = 0.2
script/script = ExtResource( 4 )

[node name="Countdown" parent="." instance=ExtResource( 5 )]

transform/pos = Vector2( 512, 300 )

[node name="Spawnpoints" type="Node2D" parent="."]

[node name="Spawnpoint 0" type="Node2D" parent="Spawnpoints"]

transform/pos = Vector2( 256, 150 )

[node name="Spawnpoint 1" type="Node2D" parent="Spawnpoints"]

transform/pos = Vector2( 768, 150 )

[node name="Spawnpoint 2" type="Node2D" parent="Spawnpoints"]

transform/pos = Vector2( 256, 450 )

[node name="Spawnpoint 3" type="Node2D" parent="Spawnpoints"]

transform/pos = Vector2( 768, 450 )


