[gd_scene load_steps=5 format=1]

[ext_resource path="res://objects/sword/sword.gd" type="Script" id=1]
[ext_resource path="res://objects/sword/sword.wav" type="Sample" id=2]

[sub_resource type="ConvexPolygonShape2D" id=1]

custom_solver_bias = 0.0
points = Vector2Array( -15, -15, 15, -15, 0, 15 )

[sub_resource type="SampleLibrary" id=2]

samples/sword = {
"db": 0.0,
"pitch": 1.0,
"priority": 0,
"sample": ExtResource( 2 )
}

[node name="sword" type="Area2D" groups=[
"sword",
]]

input/pickable = true
shapes/0/shape = SubResource( 1 )
shapes/0/transform = Matrix32( 1, 0, 0, 1, 0, 0 )
shapes/0/trigger = false
gravity_vec = Vector2( 0, 1 )
gravity = 98.0
linear_damp = 0.1
angular_damp = 1.0
script/script = ExtResource( 1 )

[node name="CollisionShape2D" type="CollisionShape2D" parent="."]

shape = SubResource( 1 )
trigger = false
_update_shape_index = 0

[node name="Timer" type="Timer" parent="."]

process_mode = 1
wait_time = 0.1
one_shot = true
autostart = true

[node name="Sound" type="SamplePlayer2D" parent="."]

params/volume_db = -13.82
params/pitch_scale = 1.0
params/attenuation/min_distance = 1.0
params/attenuation/max_distance = 2048.0
params/attenuation/distance_exp = 1.0
config/polyphony = 1
config/samples = SubResource( 2 )
config/pitch_random = 0.3

[node name="Graphics" type="Polygon2D" parent="."]

polygon = Vector2Array( 0, 20, -12.5, -5, 0, 17.5, 12.5, -5 )
uv = Vector2Array(  )
color = Color( 1, 1, 1, 1 )
vertex_colors = ColorArray(  )
offset = Vector2( 0, 0 )
texture/texture = null
texture/offset = Vector2( 0, 0 )
texture/scale = Vector2( 1, 1 )
texture/rotation = 0.0
invert/enable = false
invert/border = 100.0


