[gd_scene load_steps=3 format=1]

[ext_resource path="res://objects/wall_segment/wall_segment.gd" type="Script" id=1]

[sub_resource type="RectangleShape2D" id=1]

custom_solver_bias = 0.0
extents = Vector2( 2, 5 )

[node name="wall_segment" type="KinematicBody2D" groups=[
"wall",
]]

input/pickable = false
shapes/0/shape = SubResource( 1 )
shapes/0/transform = Matrix32( 1, 0, 0, 1, 0, 3 )
shapes/0/trigger = false
collision/layers = 1
collision/mask = 1
collision/margin = 0.08
script/script = ExtResource( 1 )

[node name="CollisionShape2D" type="CollisionShape2D" parent="."]

transform/pos = Vector2( 0, 3 )
shape = SubResource( 1 )
trigger = false
_update_shape_index = 0

[node name="hot_timer" type="Timer" parent="."]

process_mode = 1
wait_time = 0.1
one_shot = true
autostart = true

[node name="Graphics" type="Polygon2D" parent="."]

polygon = Vector2Array( -2, -2, 2, -2, 2, 8, -2, 8 )
uv = Vector2Array(  )
color = Color( 1, 1, 1, 1 )
vertex_colors = ColorArray(  )
offset = Vector2( 0, 0 )
texture/texture = null
texture/offset = Vector2( 0, 0 )
texture/scale = Vector2( 1, 1 )
texture/rotation = 0.0
invert/enable = false
invert/border = 100.0

[connection signal="timeout" from="hot_timer" to="." method="_on_hot_timer_timeout"]


