[gd_scene load_steps=2 format=1]

[ext_resource path="res://objects/roundscreen/point.gd" type="Script" id=1]

[node name="point" type="Node2D"]

transform/pos = Vector2( 22, 2.54312e-06 )
transform/rot = 90.0
script/script = ExtResource( 1 )


